{
  "functions": {
    "predeploy": [
      "# npm --prefix \"$RESOURCE_DIR\" run lint"
    ],
    "source": "functions"
  },
  "hosting": {
    "public": "public",
    "ignore": [
      "firebase.json",
      "**/.*",
      "**/node_modules/**"
    ],
    "i18n": {
      "root": "/localized"
    },
    "cleanUrls": true,
    "trailingSlash": false,
    "headers": [
      {
        "source": "**/*.@(png|webp|avif)",
        "headers": [
          {
            "key": "Cache-Control",
            "value": "max-age=604800"
          }
        ]
      }
    ]
  },
  "emulators": {
    "functions": {
      "port": 5001
    },
    "hosting": {
      "port": 5000
    },
    "ui": {
      "enabled": true
    }
  },
  "firestore": {
    "rules": "firestore.rules",
    "indexes": "firestore.indexes.json"
  }
}
